<svg width="21" height="21" viewBox="0 0 21 21" fill="none" xmlns="http://www.w3.org/2000/svg">
<path d="M21 9.69231V11.3077H11.3077V21H9.69231V11.3077H0V9.69231H9.69231V0H11.3077V9.69231H21Z" fill="white"/>
</svg>
